{
  "creditorInformation":{
    "iban":"CH4431999123000889012",
    "creditor":{
      "addressType":"STRUCTURED",
      "name":"Robert Schneider AG",
      "streetName":"Rue du Lac",
      "houseNumber":"1268",
      "postalCode":"2501",
      "city":"Biel",
      "country":"CH"
    }
  },
  "paymentAmountInformation":{
    "currency":"CHF",
    "amount":1949.75
  },
  "ultimateDebtor":{
    "addressType":"STRUCTURED",
    "name":"Pia-Maria Rutschmann-Schnyder",
    "streetName":"Grosse Marktgasse",
    "houseNumber":"28",
    "postalCode":"9400",
    "city":"Rorschach",
    "country":"CH"
  },
  "paymentReference":{
    "referenceType":"QRR",
    "reference":"210000000003139471430009017",
    "additionalInformation":{
      "unstructuredMessage":"QR Invoice create with QR Invoice Native executable called from Excel VBA"
    }
  },
  "alternativeSchemes":{
    "alternativeSchemeParameters":[
      "Name AV1: UV;UltraPay005;12345",
      "Name AV2: XY;XYService;54321"
    ]
  }
}